fmt,comp,lvl,size,time_r,time_w
json,gz,0,218706359,4.5,6.11
json,gz,1,31350110,4.69,6.96
json,gz,2,29757447,4.81,6.96
json,gz,3,28701882,4.73,6.97
json,gz,4,26187517,4.75,7.62
json,gz,5,24883017,4.8,8.17
json,gz,6,24328953,4.64,8.69
json,gz,7,23804552,4.8,9.42
json,gz,8,23444302,4.56,14.11
json,gz,9,23170099,4.76,14.9
json,xz,0,25156396,5.52,10.24
json,xz,1,23415880,5.64,11.69
json,xz,2,22494184,5.4,16.19
json,xz,3,22203600,5.31,27.65
json,xz,4,21578228,5.49,26.01
json,xz,5,19401760,5.29,39.54
json,xz,6,18894568,5.46,51.6
json,xz,7,18894604,5.26,57.89
json,xz,8,18906960,5.7,61.4
json,xz,9,18953584,5.3,66.26
json,bzip2,1,19368061,6.65,20.46
json,bzip2,2,18458590,6.7,21.97
json,bzip2,3,18158800,6.87,23.43
json,bzip2,4,17929079,6.85,24.34
json,bzip2,5,17851138,6.84,25.26
json,bzip2,6,17750767,7.04,26.17
json,bzip2,7,17688926,7.1,26.63
json,bzip2,8,17573800,6.92,27.03
json,bzip2,9,17549370,6.94,27.73
json,brotli,1,38111130,4.76,6.62
json,brotli,2,26453901,4.52,6.67
json,brotli,3,25319637,4.43,6.85
json,brotli,4,24652627,4.47,7.34
json,brotli,5,23453675,4.55,8.79
json,brotli,6,23142945,4.64,9.84
json,brotli,7,22782764,4.36,11.73
json,brotli,8,22560450,4.36,13.56
json,brotli,9,22340971,4.35,16.21
json,brotli,10,38111130,4.62,6.59
json,brotli,11,38111130,4.72,6.63
msgpack,gz,0,155325331,1.64,9.05
msgpack,gz,1,27593940,1.63,10.2
msgpack,gz,2,26587946,1.67,9.92
msgpack,gz,3,25809086,1.72,10.54
msgpack,gz,4,24427197,1.65,10.71
msgpack,gz,5,23432801,1.63,11.03
msgpack,gz,6,22850449,1.65,12.36
msgpack,gz,7,22713941,1.6,12.98
msgpack,gz,8,22509895,1.58,15.82
msgpack,gz,9,22480975,1.62,16.59
msgpack,xz,0,19675376,2.47,12.26
msgpack,xz,1,19325080,2.38,12.83
msgpack,xz,2,19185268,2.35,16.65
msgpack,xz,3,19201120,2.35,23.23
msgpack,xz,4,19163176,2.43,22.52
msgpack,xz,5,18304152,2.34,31.62
msgpack,xz,6,17747468,2.32,42.96
msgpack,xz,7,17713632,2.32,44.91
msgpack,xz,8,17688796,2.32,46.62
msgpack,xz,9,17680056,2.3,48.54
msgpack,bzip2,1,20138116,3.25,17.53
msgpack,bzip2,2,18665833,3.33,17.81
msgpack,bzip2,3,18064381,3.44,17.71
msgpack,bzip2,4,17735926,3.46,18.49
msgpack,bzip2,5,17549413,3.39,18.84
msgpack,bzip2,6,17416631,3.36,19.23
msgpack,bzip2,7,17319865,3.4,19.43
msgpack,bzip2,8,17248474,3.52,19.26
msgpack,bzip2,9,17197540,3.46,19.66
msgpack,brotli,1,154540655,1.81,14.75
msgpack,brotli,2,24423315,1.52,8.97
msgpack,brotli,3,23478911,1.58,8.81
msgpack,brotli,4,22819988,1.54,8.2
msgpack,brotli,5,20443640,1.51,9.77
msgpack,brotli,6,20345559,1.56,10.9
msgpack,brotli,7,20204860,1.58,12.27
msgpack,brotli,8,20058236,1.57,13.37
msgpack,brotli,9,19936285,1.66,15.64
msgpack,brotli,10,154540655,1.85,14.79
msgpack,brotli,11,154540655,1.82,14.7
pickle,gz,0,201584624,2.82,2.96
pickle,gz,1,31424015,3.05,3.83
pickle,gz,2,29810826,3.04,3.91
pickle,gz,3,28714452,3.14,4.18
pickle,gz,4,27120940,3.07,4.56
pickle,gz,5,25863841,3.04,5.14
pickle,gz,6,25117324,3.08,5.72
pickle,gz,7,24900245,2.97,6.25
pickle,gz,8,24654620,3.21,8.73
pickle,gz,9,24616106,3.21,10.09
pickle,xz,0,21649260,4.31,6.65
pickle,xz,1,21147496,4.35,8.11
pickle,xz,2,20609464,3.98,11.06
pickle,xz,3,20497472,3.98,16.82
pickle,xz,4,20828764,4.04,17.2
pickle,xz,5,19521472,4.13,24.8
pickle,xz,6,18798012,4.05,36.24
pickle,xz,7,18760780,4.02,38.4
pickle,xz,8,18754564,4.22,40.55
pickle,xz,9,18723412,4.15,42.79
pickle,bzip2,1,22292878,5.18,14.37
pickle,bzip2,2,20289374,5.93,14.87
pickle,bzip2,3,19469775,5.62,15.51
pickle,bzip2,4,19038885,5.95,16.05
pickle,bzip2,5,18709812,5.43,16.56
pickle,bzip2,6,18493520,5.58,17.05
pickle,bzip2,7,18343593,5.38,17.6
pickle,bzip2,8,18238812,5.83,17.96
pickle,bzip2,9,18154854,5.43,17.99
pickle,brotli,1,194119990,5.04,9.83
pickle,brotli,2,27190262,2.84,2.94
pickle,brotli,3,26019778,2.82,3.09
pickle,brotli,4,25148866,2.85,3.55
pickle,brotli,5,21781015,2.82,4.54
pickle,brotli,6,21503550,2.77,5.13
pickle,brotli,7,21226433,2.98,6.77
pickle,brotli,8,21043141,2.85,7.95
pickle,brotli,9,20904368,2.84,10.12
pickle,brotli,10,194119990,4.97,9.79
pickle,brotli,11,194119990,4.93,9.02
json,zstd,1,24894373,4.11,5.92
json,zstd,2,26375631,4.11,6.01
json,zstd,3,26721742,4.14,6.33
json,zstd,4,26912645,4.4,6.29
json,zstd,5,25120046,4.42,6.89
json,zstd,6,23696879,4.13,7.36
json,zstd,7,23392993,4.22,7.84
json,zstd,8,22685987,4.11,8.36
json,zstd,9,22882954,4.22,9.04
json,zstd,10,22665161,4.12,10.2
json,zstd,11,22486847,4.1,12.17
json,zstd,12,22483202,4.09,12.32
json,zstd,13,22342702,4.02,13.95
json,zstd,14,22110673,4.02,15.54
json,zstd,15,21952255,4.1,19.04
json,zstd,16,20065301,3.99,36.63
json,zstd,17,19890258,4.01,46.21
json,zstd,18,19822244,4.05,70.14
json,zstd,19,18653616,4.02,142.48
json,zstd,20,18630363,4.12,150.55
json,zstd,21,18616050,4.17,156.8
json,zstd,22,18604023,4.17,229.54
msgpack,zstd,1,23046792,1.46,7.53
msgpack,zstd,2,23570708,1.56,7.44
msgpack,zstd,3,22609212,1.52,7.6
msgpack,zstd,4,22711767,1.56,7.77
msgpack,zstd,5,21810139,1.49,8.14
msgpack,zstd,6,20937791,1.55,8.5
msgpack,zstd,7,20732147,1.49,9
msgpack,zstd,8,20103828,1.45,9.47
msgpack,zstd,9,20114317,1.46,9.63
msgpack,zstd,10,19964550,1.59,12.11
msgpack,zstd,11,19831753,1.49,12.35
msgpack,zstd,12,19830602,1.56,12.61
msgpack,zstd,13,19635151,1.45,12.81
msgpack,zstd,14,19436682,1.54,14.27
msgpack,zstd,15,19342587,1.51,16.11
msgpack,zstd,16,19475034,1.44,24.72
msgpack,zstd,17,19424647,1.44,27.2
msgpack,zstd,18,19219295,1.48,39.51
msgpack,zstd,19,17875872,1.4,70.87
msgpack,zstd,20,17805631,1.39,73.46
msgpack,zstd,21,17772369,1.41,75.16
msgpack,zstd,22,17743428,1.46,100.98
pickle,zstd,1,26506657,2.82,2.1
pickle,zstd,2,26949438,2.59,2.16
pickle,zstd,3,25274784,2.34,2.2
pickle,zstd,4,25271512,2.57,2.28
pickle,zstd,5,24070474,2.38,2.77
pickle,zstd,6,22904090,2.62,3.18
pickle,zstd,7,22506560,2.45,3.66
pickle,zstd,8,21961364,2.27,4.09
pickle,zstd,9,22007852,2.38,4.2
pickle,zstd,10,21801091,2.36,5.04
pickle,zstd,11,21627265,2.54,7.05
pickle,zstd,12,21624190,2.32,7.27
pickle,zstd,13,21456736,2.36,7.22
pickle,zstd,14,21206480,2.36,8.76
pickle,zstd,15,21090166,2.55,11.02
pickle,zstd,16,20891906,2.57,20.4
pickle,zstd,17,20843156,2.29,23.62
pickle,zstd,18,20700440,2.39,35.46
pickle,zstd,19,19559110,2.96,114.1
pickle,zstd,20,19493897,2.87,105.5
pickle,zstd,21,19453996,2.33,118.94
pickle,zstd,22,19437333,2.8,118.2
